1669 3806 238
3096 3259 199
1439 3479 217
1415 3005 217
1880 2356 183
1620 1792 180
1660 1871 180
330 399 126
2919 4142 238
2043 4524 238
1206 2874 209
16 37 112
2738 4454 238
2528 4767 238
129 2244 183
1703 2844 209
553 641 137
856 1861 182
1636 1677 180
1629 2561 209
575 807 171
194 315 131
50 72 113
1461 2389 183
877 994 174
4126 4896 215
831 1405 182
2326 3362 217
1306 4925 238
986 1045 156
2241 3923 238
771 4484 238
1332 1642 172
893 1296 182
1574 1615 167
844 884 179
2100 2612 209
1074 4556 238
15 170 122
942 2525 209
1 1149 179
1292 1421 177
727 881 179
1167 2214 180
1129 3221 217
3327 4904 238
1105 2188 182
1556 2960 217
1399 4981 238
1875 2223 183
37492 38391 306
21104 30503 308
1726 3995 238
17263 34028 308
23627 42496 324
29150 49619 324
24687 43577 324
18902 40360 324
12958 14650 276
14920 44424 324
19557 27922 308
1509 3189 217
30327 42594 324
20089 48113 324
355 16721 276
5347 8788 262
7607 28795 308
18764 35869 324
32456 48693 324
1704 2976 217
27084 31261 272
3334 11054 268
96 3527 217
13362 17188 271
27552 28294 259
18174 47401 324
2242 2691 209
18867 29579 308
37152 40170 306
2803 48356 324
17912 38365 324
15512 28504 308
3221 3270 168
11002 47186 324
6159 32266 308
2309 8292 262
2303 4659 238
18946 33998 308
9041 38615 324
34672 39673 324
9125 47628 324
6900 8304 257
16708 18000 279
3455 19749 279
703 31199 308
1624 18244 279
7145 21408 279
11293 18897 279
249 39116 324
9936 10133 224
52555 64650 335
9859 80705 351
215205 444521 449
147948 463119 449
54061 216662 386
33248 258265 443
95701 362904 443
186249 274087 443
127457 217460 386
44660 84145 351
182993 229618 386
23392 296465 443
71998 400847 443
103681 136240 354
3951 146496 375
256991 419956 449
19588 412859 449
147845 243180 443
174996 414070 449
114982 151978 375
271747 340079 389
16935 218814 386
125868 326954 443
136845 297790 443
136842 373754 443
255692 291205 407
13237 236475 443
11916 19684 279
70964 128843 354
217063 251486 443
54277 312182 443
93418 113116 354
239639 362156 441
4546 472995 449
51210 58880 340
396702 462686 449
347427 458693 449
58394 76070 335
148915 270835 443
239984 265847 407
48039 180362 383
119682 138892 344
59354 229771 386
167170 237230 443
903 296184 443
420259 479772 444
12889 78325 351
37948 131488 354
287603 338144 389
33152 161269 383
27962 39182 324
143213 183345 383
112244 575925 470
47885 93123 351
327445 357393 441
375010 598290 470
247346 898929 525
228083 711263 509
247583 294853 407
523104 555986 452
825711 993147 525
526535 900642 525
46656 157275 383
290532 297215 358
744896 794464 468
658322 712828 504
879615 905027 445
62333 566093 470
26388 138689 354
328258 766276 509
490622 831618 509
177316 693917 509
485429 841807 525
19816 58592 340
224427 300597 443
3281 222850 386
175478 254662 443
462106 890907 525
15013 185388 383
469 26506 282
328973 561581 470
417397 486424 444
646715 906605 525
28373 134442 354
291057 342507 384
127510 135124 344
26336 211375 383
55079 717613 509
108533 168137 383
598272 946709 525
80560 89178 333
18731 941796 525
204301 247617 443
204664 543784 470
17000 468776 449
267495 646034 509
153042 398321 443
117851 277309 443
394206 590730 470
2263 53116 340
277 396 144
703 776 171
77 117 119
586 858 171
236 804 171
562 670 145
32 221 125
174 197 120
626 703 171
348 880 179
71 111 119
413 698 145
49 88 116
25 365 144
900 907 117
285 849 171
26 59 113
662 985 179
35 247 128
41 666 145
650 676 145
15 18 21
229 320 131
265 991 179
3 372 144
341 993 179
102 243 128
11 553 144
208 260 128
77 533 144
442 699 145
7 43 112
823 915 179
8 59 113
72 72 23
125 737 171
191 470 144
334 520 142
479 510 142
329 448 134
12 90 116
46 554 144
298 656 145
521 783 171
96 173 125
444 688 145
489 971 179
27 31 112
554 862 171
27 520 144
